Verilog/Assignment_1/q3/a3_FAFS_tb.vcd
$date
	Mon Sep 08 19:10:27 2025
$end
$version
	Icarus Verilog
$end
$timescale
	1s
$end
$scope module a3_FAFS_tb $end
$var wire 1 ! sum $end
$var wire 1 " diff $end
$var wire 1 # carry $end
$var wire 1 $ borrow $end
$var reg 1 % A $end
$var reg 1 & B $end
$var reg 1 ' C $end
$scope module FA1 $end
$var wire 1 % a $end
$var wire 1 & b $end
$var wire 1 ' c $end
$var wire 1 # carry $end
$var wire 1 ( w3 $end
$var wire 1 ) w2 $end
$var wire 1 * w1 $end
$var wire 1 ! sum $end
$scope module HA1 $end
$var wire 1 % a $end
$var wire 1 & b $end
$var wire 1 * carry $end
$var wire 1 ) sum $end
$upscope $end
$scope module HA2 $end
$var wire 1 ) a $end
$var wire 1 ' b $end
$var wire 1 ( carry $end
$var wire 1 ! sum $end
$upscope $end
$upscope $end
$scope module FS2 $end
$var wire 1 % a $end
$var wire 1 & b $end
$var wire 1 $ borrow $end
$var wire 1 ' c $end
$var wire 1 + w3 $end
$var wire 1 , w2 $end
$var wire 1 - w1 $end
$var wire 1 " diff $end
$scope module HS1 $end
$var wire 1 % a $end
$var wire 1 & b $end
$var wire 1 - borrow $end
$var wire 1 , diff $end
$var wire 1 . na $end
$upscope $end
$scope module HS2 $end
$var wire 1 , a $end
$var wire 1 ' b $end
$var wire 1 + borrow $end
$var wire 1 " diff $end
$var wire 1 / na $end
$upscope $end
$upscope $end
$upscope $end
$enddefinitions $end
$comment Show the parameter values. $end
$dumpall
$end
#0
$dumpvars
1/
1.
0-
0,
0+
0*
0)
0(
0'
0&
0%
0$
0#
0"
0!
$end
#10
1$
1!
1"
1+
1'
#20
0/
0+
1)
1,
1-
0'
1&
#30
1#
0!
1(
0"
1'
#40
0#
0$
1!
0(
1"
0-
0.
0'
0&
1%
#50
1#
0!
1(
0"
1'
#60
1/
0(
0)
1*
0,
0'
1&
#70
1$
1!
1"
1+
1'
